^A:\PROJECTS\HOMEWORK18\HOMEWORK_18\HOMEWORK_18.CPP
A:\PROJECTS\HOMEWORK18\HOMEWORK_18\DEBUG\VC142.PDB
A:\PROJECTS\HOMEWORK18\HOMEWORK_18\DEBUG\VC142.IDB
A:\PROJECTS\HOMEWORK18\HOMEWORK_18\DEBUG\HOMEWORK_18.OBJ
